{
  "project_info": {
    "project_number": "255796656134",
    "project_id": "login-uas-flutter",
    "storage_bucket": "login-uas-flutter.appspot.com"
  },
  "client": [
    {
      "client_info": {
        "mobilesdk_app_id": "1:255796656134:android:998f28249550fc41e62b87",
        "android_client_info": {
          "package_name": "com.example.uas"
        }
      },
      "oauth_client": [
        {
          "client_id": "255796656134-7vm5pr87gv8ipp3a1rgq0ioj5941u7se.apps.googleusercontent.com",
          "client_type": 3
        }
      ],
      "api_key": [
        {
          "current_key": "AIzaSyAOAs6a-8KUre0ObeBUNv_TyvAN0pra3kw"
        }
      ],
      "services": {
        "appinvite_service": {
          "other_platform_oauth_client": [
            {
              "client_id": "255796656134-7vm5pr87gv8ipp3a1rgq0ioj5941u7se.apps.googleusercontent.com",
              "client_type": 3
            }
          ]
        }
      }
    }
  ],
  "configuration_version": "1"
}